…
    ## Parsed with column specification:
    ## cols(
    ##   .default = col_double()
    ## )

    ## See spec(...) for full column specifications.

``` r
birthweight_data
```

    ## # A tibble: 4,342 x 20
    ##    babysex bhead blength   bwt delwt fincome frace gaweeks malform menarche
    ##    <chr>   <dbl>   <dbl> <dbl> <dbl>   <dbl> <chr>   <dbl> <chr>      <dbl>
    ##  1 female     34      51  3629   177      35 white    39.9 absent        13
    ##  2 male       34      48  3062   156      65 black    25.9 absent        14
    ##  3 female     36      50  3345   148      85 white    39.9 absent        12
    ##  4 male       34      52  3062   157      55 white    40   absent        14
    ##  5 female     34      52  3374   156       5 white    41.6 absent        13
    ##  6 male       33      52  3374   129      55 white    40.7 absent        12
    ##  7 female     33      46  2523   126      96 black    40.3 absent        14
    ##  8 female     33      49  2778   140       5 white    37.4 absent        12
    ##  9 male       36      52  3515   146      85 white    40.3 absent        11
    ## 10 male       33      50  3459   169      75 black    40.7 absent        12
    ## # … with 4,332 more rows, and 10 more variables: mheight <dbl>,
    ## #   momage <dbl>, mrace <chr>, parity <dbl>, pnumlbw <dbl>, pnumsga <dbl>,
    ## #   ppbmi <dbl>, ppwt <dbl>, smoken <dbl>, wtgain <dbl>
…
    ## Registered S3 method overwritten by 'hoardr':
    ##   method           from
    ##   print.cache_info httr

    ## file path:          /Users/bingbingguo/Library/Caches/rnoaa/ghcnd/USW00094728.dly

    ## file last updated:  2019-10-23 23:43:24

    ## file min/max dates: 1869-01-01 / 2019-10-31

``` r
weather_df
```

    ## # A tibble: 365 x 6
    ##    name           id          date        prcp  tmax  tmin
    ##    <chr>          <chr>       <date>     <dbl> <dbl> <dbl>
    ##  1 CentralPark_NY USW00094728 2017-01-01     0   8.9   4.4
    ##  2 CentralPark_NY USW00094728 2017-01-02    53   5     2.8
    ##  3 CentralPark_NY USW00094728 2017-01-03   147   6.1   3.9
    ##  4 CentralPark_NY USW00094728 2017-01-04     0  11.1   1.1
    ##  5 CentralPark_NY USW00094728 2017-01-05     0   1.1  -2.7
    ##  6 CentralPark_NY USW00094728 2017-01-06    13   0.6  -3.8
    ##  7 CentralPark_NY USW00094728 2017-01-07    81  -3.2  -6.6
    ##  8 CentralPark_NY USW00094728 2017-01-08     0  -3.8  -8.8
    ##  9 CentralPark_NY USW00094728 2017-01-09     0  -4.9  -9.9
    ## 10 CentralPark_NY USW00094728 2017-01-10     0   7.8  -6  
    ## # … with 355 more rows
…
    ## Warning: `data_frame()` is deprecated, use `tibble()`.
    ## This warning is displayed once per session.

``` r
boot_straps
```

    ## # A tibble: 5,000 x 2
    ##    strap_number strap_sample      
    ##           <int> <list>            
    ##  1            1 <tibble [365 × 6]>
    ##  2            2 <tibble [365 × 6]>
    ##  3            3 <tibble [365 × 6]>
    ##  4            4 <tibble [365 × 6]>
    ##  5            5 <tibble [365 × 6]>
    ##  6            6 <tibble [365 × 6]>
    ##  7            7 <tibble [365 × 6]>
    ##  8            8 <tibble [365 × 6]>
    ##  9            9 <tibble [365 × 6]>
    ## 10           10 <tibble [365 × 6]>
    ## # … with 4,990 more rows
…
    ## Warning: `cols` is now required.
    ## Please use `cols = c(results_tidy, results_glance)`

``` r
bootstrap_results 
```

    ## # A tibble: 5,000 x 2
    ##    r_squared log_betas
    ##        <dbl>     <dbl>
    ##  1     0.926      2.03
    ##  2     0.926      2.02
    ##  3     0.907      1.99
    ##  4     0.915      1.97
    ##  5     0.924      2.00
    ##  6     0.915      2.01
    ##  7     0.908      2.02
    ##  8     0.930      1.98
    ##  9     0.914      2.00
    ## 10     0.913      2.03
    ## # … with 4,990 more rows
…
